<svg width="24" height="24" viewBox="0 0 24 24" fill="none" xmlns="http://www.w3.org/2000/svg">
<path d="M19.4333 5.56358C19.146 4.55979 18.221 3.823 17.1263 3.823C16.0317 3.823 15.1066 4.55979 14.8191 5.56358H0.698242V6.88189H14.8193C15.1066 7.8855 16.0317 8.62256 17.1263 8.62256C18.221 8.62256 19.146 7.8855 19.4334 6.88189H23.1982V5.56358H19.4333Z" fill="#363636"/>
<path d="M4.92377 9.3374C3.82914 9.3374 2.90396 10.0744 2.61682 11.078H0.698242V12.3964H2.61682C2.90396 13.4002 3.82923 14.1371 4.92386 14.1371C6.01849 14.1371 6.94366 13.4002 7.2309 12.3964H23.1982V11.078H7.2309C6.94366 10.0744 6.0184 9.3374 4.92377 9.3374Z" fill="#363636"/>
<path d="M12.3179 14.8518C11.2232 14.8518 10.2979 15.5887 10.0107 16.5925H0.698242V17.9108H10.0107C10.2979 18.9142 11.2232 19.6515 12.3179 19.6515C13.4124 19.6515 14.3377 18.9142 14.6248 17.9108H23.1982V16.5925H14.6248C14.3377 15.5887 13.4124 14.8518 12.3179 14.8518Z" fill="#363636"/>
</svg>
